%YAML 1.1
%TAG !u! tag:unity3d.com,2011:
--- !u!1 &1229260388626025182
GameObject:
  m_ObjectHideFlags: 0
  m_CorrespondingSourceObject: {fileID: 0}
  m_PrefabInstance: {fileID: 0}
  m_PrefabAsset: {fileID: 0}
  serializedVersion: 6
  m_Component:
  - component: {fileID: 8250203988346359824}
  - component: {fileID: 661079914826686191}
  - component: {fileID: 1548490944801931040}
  m_Layer: 0
  m_Name: Layer1
  m_TagString: Untagged
  m_Icon: {fileID: 0}
  m_NavMeshLayer: 0
  m_StaticEditorFlags: 0
  m_IsActive: 1
--- !u!4 &8250203988346359824
Transform:
  m_ObjectHideFlags: 0
  m_CorrespondingSourceObject: {fileID: 0}
  m_PrefabInstance: {fileID: 0}
  m_PrefabAsset: {fileID: 0}
  m_GameObject: {fileID: 1229260388626025182}
  m_LocalRotation: {x: -0, y: -0, z: -0, w: 1}
  m_LocalPosition: {x: 0, y: 0, z: 0}
  m_LocalScale: {x: 1, y: 1, z: 1}
  m_Children: []
  m_Father: {fileID: 3763935711714074704}
  m_RootOrder: 0
  m_LocalEulerAnglesHint: {x: 0, y: 0, z: 0}
--- !u!1839735485 &661079914826686191
Tilemap:
  m_ObjectHideFlags: 0
  m_CorrespondingSourceObject: {fileID: 0}
  m_PrefabInstance: {fileID: 0}
  m_PrefabAsset: {fileID: 0}
  m_GameObject: {fileID: 1229260388626025182}
  m_Enabled: 1
  m_Tiles:
  - first: {x: -2, y: -3, z: 0}
    second:
      serializedVersion: 2
      m_TileIndex: 20
      m_TileSpriteIndex: 20
      m_TileMatrixIndex: 0
      m_TileColorIndex: 0
      m_TileObjectToInstantiateIndex: 65535
      dummyAlignment: 0
      m_AllTileFlags: 1073741825
  - first: {x: -1, y: -3, z: 0}
    second:
      serializedVersion: 2
      m_TileIndex: 21
      m_TileSpriteIndex: 21
      m_TileMatrixIndex: 0
      m_TileColorIndex: 0
      m_TileObjectToInstantiateIndex: 65535
      dummyAlignment: 0
      m_AllTileFlags: 1073741825
  - first: {x: 0, y: -3, z: 0}
    second:
      serializedVersion: 2
      m_TileIndex: 22
      m_TileSpriteIndex: 22
      m_TileMatrixIndex: 0
      m_TileColorIndex: 0
      m_TileObjectToInstantiateIndex: 65535
      dummyAlignment: 0
      m_AllTileFlags: 1073741825
  - first: {x: -2, y: -2, z: 0}
    second:
      serializedVersion: 2
      m_TileIndex: 15
      m_TileSpriteIndex: 15
      m_TileMatrixIndex: 0
      m_TileColorIndex: 0
      m_TileObjectToInstantiateIndex: 65535
      dummyAlignment: 0
      m_AllTileFlags: 1073741825
  - first: {x: -1, y: -2, z: 0}
    second:
      serializedVersion: 2
      m_TileIndex: 16
      m_TileSpriteIndex: 16
      m_TileMatrixIndex: 0
      m_TileColorIndex: 0
      m_TileObjectToInstantiateIndex: 65535
      dummyAlignment: 0
      m_AllTileFlags: 1073741825
  - first: {x: 0, y: -2, z: 0}
    second:
      serializedVersion: 2
      m_TileIndex: 17
      m_TileSpriteIndex: 17
      m_TileMatrixIndex: 0
      m_TileColorIndex: 0
      m_TileObjectToInstantiateIndex: 65535
      dummyAlignment: 0
      m_AllTileFlags: 1073741825
  - first: {x: 1, y: -2, z: 0}
    second:
      serializedVersion: 2
      m_TileIndex: 18
      m_TileSpriteIndex: 18
      m_TileMatrixIndex: 0
      m_TileColorIndex: 0
      m_TileObjectToInstantiateIndex: 65535
      dummyAlignment: 0
      m_AllTileFlags: 1073741825
  - first: {x: 2, y: -2, z: 0}
    second:
      serializedVersion: 2
      m_TileIndex: 19
      m_TileSpriteIndex: 19
      m_TileMatrixIndex: 0
      m_TileColorIndex: 0
      m_TileObjectToInstantiateIndex: 65535
      dummyAlignment: 0
      m_AllTileFlags: 1073741825
  - first: {x: -2, y: -1, z: 0}
    second:
      serializedVersion: 2
      m_TileIndex: 10
      m_TileSpriteIndex: 10
      m_TileMatrixIndex: 0
      m_TileColorIndex: 0
      m_TileObjectToInstantiateIndex: 65535
      dummyAlignment: 0
      m_AllTileFlags: 1073741825
  - first: {x: -1, y: -1, z: 0}
    second:
      serializedVersion: 2
      m_TileIndex: 11
      m_TileSpriteIndex: 11
      m_TileMatrixIndex: 0
      m_TileColorIndex: 0
      m_TileObjectToInstantiateIndex: 65535
      dummyAlignment: 0
      m_AllTileFlags: 1073741825
  - first: {x: 0, y: -1, z: 0}
    second:
      serializedVersion: 2
      m_TileIndex: 12
      m_TileSpriteIndex: 12
      m_TileMatrixIndex: 0
      m_TileColorIndex: 0
      m_TileObjectToInstantiateIndex: 65535
      dummyAlignment: 0
      m_AllTileFlags: 1073741825
  - first: {x: 1, y: -1, z: 0}
    second:
      serializedVersion: 2
      m_TileIndex: 13
      m_TileSpriteIndex: 13
      m_TileMatrixIndex: 0
      m_TileColorIndex: 0
      m_TileObjectToInstantiateIndex: 65535
      dummyAlignment: 0
      m_AllTileFlags: 1073741825
  - first: {x: 2, y: -1, z: 0}
    second:
      serializedVersion: 2
      m_TileIndex: 14
      m_TileSpriteIndex: 14
      m_TileMatrixIndex: 0
      m_TileColorIndex: 0
      m_TileObjectToInstantiateIndex: 65535
      dummyAlignment: 0
      m_AllTileFlags: 1073741825
  - first: {x: -2, y: 0, z: 0}
    second:
      serializedVersion: 2
      m_TileIndex: 5
      m_TileSpriteIndex: 5
      m_TileMatrixIndex: 0
      m_TileColorIndex: 0
      m_TileObjectToInstantiateIndex: 65535
      dummyAlignment: 0
      m_AllTileFlags: 1073741825
  - first: {x: -1, y: 0, z: 0}
    second:
      serializedVersion: 2
      m_TileIndex: 6
      m_TileSpriteIndex: 6
      m_TileMatrixIndex: 0
      m_TileColorIndex: 0
      m_TileObjectToInstantiateIndex: 65535
      dummyAlignment: 0
      m_AllTileFlags: 1073741825
  - first: {x: 0, y: 0, z: 0}
    second:
      serializedVersion: 2
      m_TileIndex: 7
      m_TileSpriteIndex: 7
      m_TileMatrixIndex: 0
      m_TileColorIndex: 0
      m_TileObjectToInstantiateIndex: 65535
      dummyAlignment: 0
      m_AllTileFlags: 1073741825
  - first: {x: 1, y: 0, z: 0}
    second:
      serializedVersion: 2
      m_TileIndex: 8
      m_TileSpriteIndex: 8
      m_TileMatrixIndex: 0
      m_TileColorIndex: 0
      m_TileObjectToInstantiateIndex: 65535
      dummyAlignment: 0
      m_AllTileFlags: 1073741825
  - first: {x: 2, y: 0, z: 0}
    second:
      serializedVersion: 2
      m_TileIndex: 9
      m_TileSpriteIndex: 9
      m_TileMatrixIndex: 0
      m_TileColorIndex: 0
      m_TileObjectToInstantiateIndex: 65535
      dummyAlignment: 0
      m_AllTileFlags: 1073741825
  - first: {x: -2, y: 1, z: 0}
    second:
      serializedVersion: 2
      m_TileIndex: 0
      m_TileSpriteIndex: 0
      m_TileMatrixIndex: 0
      m_TileColorIndex: 0
      m_TileObjectToInstantiateIndex: 65535
      dummyAlignment: 0
      m_AllTileFlags: 1073741825
  - first: {x: -1, y: 1, z: 0}
    second:
      serializedVersion: 2
      m_TileIndex: 1
      m_TileSpriteIndex: 1
      m_TileMatrixIndex: 0
      m_TileColorIndex: 0
      m_TileObjectToInstantiateIndex: 65535
      dummyAlignment: 0
      m_AllTileFlags: 1073741825
  - first: {x: 0, y: 1, z: 0}
    second:
      serializedVersion: 2
      m_TileIndex: 2
      m_TileSpriteIndex: 2
      m_TileMatrixIndex: 0
      m_TileColorIndex: 0
      m_TileObjectToInstantiateIndex: 65535
      dummyAlignment: 0
      m_AllTileFlags: 1073741825
  - first: {x: 1, y: 1, z: 0}
    second:
      serializedVersion: 2
      m_TileIndex: 3
      m_TileSpriteIndex: 3
      m_TileMatrixIndex: 0
      m_TileColorIndex: 0
      m_TileObjectToInstantiateIndex: 65535
      dummyAlignment: 0
      m_AllTileFlags: 1073741825
  - first: {x: 2, y: 1, z: 0}
    second:
      serializedVersion: 2
      m_TileIndex: 4
      m_TileSpriteIndex: 4
      m_TileMatrixIndex: 0
      m_TileColorIndex: 0
      m_TileObjectToInstantiateIndex: 65535
      dummyAlignment: 0
      m_AllTileFlags: 1073741825
  m_AnimatedTiles: {}
  m_TileAssetArray:
  - m_RefCount: 1
    m_Data: {fileID: 11400000, guid: 74350059ad1c502449a5725c78c2e744, type: 2}
  - m_RefCount: 1
    m_Data: {fileID: 11400000, guid: 95bed90323bea3a42b61f34d1e5b3748, type: 2}
  - m_RefCount: 1
    m_Data: {fileID: 11400000, guid: cc3de1c706977f5449712f2645054fc9, type: 2}
  - m_RefCount: 1
    m_Data: {fileID: 11400000, guid: e9e3b78fa09eb514ea8f6c3727696386, type: 2}
  - m_RefCount: 1
    m_Data: {fileID: 11400000, guid: b0d99a858ddae6044bca89742008fdcf, type: 2}
  - m_RefCount: 1
    m_Data: {fileID: 11400000, guid: 127810d5cbc71094fbe4fc97ebfe50d4, type: 2}
  - m_RefCount: 1
    m_Data: {fileID: 11400000, guid: 6193e159c4603b748a4d864e9a391571, type: 2}
  - m_RefCount: 1
    m_Data: {fileID: 11400000, guid: 44cc016018dddd445b477227c5d4018f, type: 2}
  - m_RefCount: 1
    m_Data: {fileID: 11400000, guid: a03d953c5eef326459ee344ab3efe63a, type: 2}
  - m_RefCount: 1
    m_Data: {fileID: 11400000, guid: 24edd02bfe3ce9b40b343eaa10cc591c, type: 2}
  - m_RefCount: 1
    m_Data: {fileID: 11400000, guid: 39f0100708c7c9941a92cfe7a846ad07, type: 2}
  - m_RefCount: 1
    m_Data: {fileID: 11400000, guid: 23053a027ae9acd4c8d5dcdd11a3c6d7, type: 2}
  - m_RefCount: 1
    m_Data: {fileID: 11400000, guid: 4a8ebc5bdbd613f45af7b9ea727a776c, type: 2}
  - m_RefCount: 1
    m_Data: {fileID: 11400000, guid: d0af9b9bd32e1b343b3cc1d23322bd1c, type: 2}
  - m_RefCount: 1
    m_Data: {fileID: 11400000, guid: 3dd97585aa1dc364b80afa61a0b73351, type: 2}
  - m_RefCount: 1
    m_Data: {fileID: 11400000, guid: 8689ed2c997d0a54dbbef0be0bf7a338, type: 2}
  - m_RefCount: 1
    m_Data: {fileID: 11400000, guid: 46c626cbe737892469e3277435ce4605, type: 2}
  - m_RefCount: 1
    m_Data: {fileID: 11400000, guid: 50d847d9aeca9724aa75d05c4e37e4d9, type: 2}
  - m_RefCount: 1
    m_Data: {fileID: 11400000, guid: 7efec15d82feff549b20a83baa112bf0, type: 2}
  - m_RefCount: 1
    m_Data: {fileID: 11400000, guid: e750e4b7a37544b469540b769de3124b, type: 2}
  - m_RefCount: 1
    m_Data: {fileID: 11400000, guid: 52b97bd065016154198e38ed7d8edf66, type: 2}
  - m_RefCount: 1
    m_Data: {fileID: 11400000, guid: 959b11984067fa547b83124d101a4fbd, type: 2}
  - m_RefCount: 1
    m_Data: {fileID: 11400000, guid: b5e3104f46f8c144891566bdc1427b24, type: 2}
  m_TileSpriteArray:
  - m_RefCount: 1
    m_Data: {fileID: 21300000, guid: d2e5333787caeaf4ebffc05559c3d256, type: 3}
  - m_RefCount: 1
    m_Data: {fileID: 21300000, guid: b0fabf9bb2d1c5c4ab33252072ce8919, type: 3}
  - m_RefCount: 1
    m_Data: {fileID: 21300000, guid: f49938fd5e962834d80abcc368229c65, type: 3}
  - m_RefCount: 1
    m_Data: {fileID: 21300000, guid: 0e046149a23c8604189ebedb79436c9d, type: 3}
  - m_RefCount: 1
    m_Data: {fileID: 21300000, guid: 4c563e929510fb542b59840d133aa24d, type: 3}
  - m_RefCount: 1
    m_Data: {fileID: 21300000, guid: 13a295e9d3e7cee4dbc0d43988478b6d, type: 3}
  - m_RefCount: 1
    m_Data: {fileID: 21300000, guid: b18cc5ea85fc62740aea736cbf271b00, type: 3}
  - m_RefCount: 1
    m_Data: {fileID: 21300000, guid: e5977bf53b642514b9e120b34ce13480, type: 3}
  - m_RefCount: 1
    m_Data: {fileID: 21300000, guid: 152b2b65b59347340bb65094f8e846a6, type: 3}
  - m_RefCount: 1
    m_Data: {fileID: 21300000, guid: 6c8758634bc2a704d91737a0480258bf, type: 3}
  - m_RefCount: 1
    m_Data: {fileID: 21300000, guid: 244d59731ee2a984ebb854f847d30cab, type: 3}
  - m_RefCount: 1
    m_Data: {fileID: 21300000, guid: 4116ffbebb8ddd644aba5912193e0239, type: 3}
  - m_RefCount: 1
    m_Data: {fileID: 21300000, guid: 2490eadba64dad743bbd12698078ed3e, type: 3}
  - m_RefCount: 1
    m_Data: {fileID: 21300000, guid: 2abe0c6884fe6d54490c02fe31cb3bbe, type: 3}
  - m_RefCount: 1
    m_Data: {fileID: 21300000, guid: a38077da8ace4b8448295159bdbfa350, type: 3}
  - m_RefCount: 1
    m_Data: {fileID: 21300000, guid: 086002ad15a2a5242a7bfbac33353fa9, type: 3}
  - m_RefCount: 1
    m_Data: {fileID: 21300000, guid: 1d3ca053d9823694ea8522c83c69f62e, type: 3}
  - m_RefCount: 1
    m_Data: {fileID: 21300000, guid: 78af1c8a65976ce47935d6b852c4f37b, type: 3}
  - m_RefCount: 1
    m_Data: {fileID: 21300000, guid: b3877fb12bc2b2741b4e74a6f9540378, type: 3}
  - m_RefCount: 1
    m_Data: {fileID: 21300000, guid: 4a9cb17f4295c514592d7996bca929dc, type: 3}
  - m_RefCount: 1
    m_Data: {fileID: 21300000, guid: 17e12354edd794c4c999ea492cb577c4, type: 3}
  - m_RefCount: 1
    m_Data: {fileID: 21300000, guid: 4e78236c1a8223e48862222a09aedd8d, type: 3}
  - m_RefCount: 1
    m_Data: {fileID: 21300000, guid: 1051a7b99ed61a449a2c4701a522121d, type: 3}
  m_TileMatrixArray:
  - m_RefCount: 23
    m_Data:
      e00: 1
      e01: 0
      e02: 0
      e03: 0
      e10: 0
      e11: 1
      e12: 0
      e13: 0
      e20: 0
      e21: 0
      e22: 1
      e23: 0
      e30: 0
      e31: 0
      e32: 0
      e33: 1
  m_TileColorArray:
  - m_RefCount: 23
    m_Data: {r: 1, g: 1, b: 1, a: 1}
  m_TileObjectToInstantiateArray: []
  m_AnimationFrameRate: 1
  m_Color: {r: 1, g: 1, b: 1, a: 1}
  m_Origin: {x: -2, y: -3, z: 0}
  m_Size: {x: 5, y: 5, z: 1}
  m_TileAnchor: {x: 0.5, y: 0.5, z: 0}
  m_TileOrientation: 0
  m_TileOrientationMatrix:
    e00: 1
    e01: 0
    e02: 0
    e03: 0
    e10: 0
    e11: 1
    e12: 0
    e13: 0
    e20: 0
    e21: 0
    e22: 1
    e23: 0
    e30: 0
    e31: 0
    e32: 0
    e33: 1
--- !u!483693784 &1548490944801931040
TilemapRenderer:
  m_ObjectHideFlags: 0
  m_CorrespondingSourceObject: {fileID: 0}
  m_PrefabInstance: {fileID: 0}
  m_PrefabAsset: {fileID: 0}
  m_GameObject: {fileID: 1229260388626025182}
  m_Enabled: 1
  m_CastShadows: 0
  m_ReceiveShadows: 0
  m_DynamicOccludee: 0
  m_MotionVectors: 1
  m_LightProbeUsage: 0
  m_ReflectionProbeUsage: 0
  m_RayTracingMode: 0
  m_RayTraceProcedural: 0
  m_RenderingLayerMask: 1
  m_RendererPriority: 0
  m_Materials:
  - {fileID: 10754, guid: 0000000000000000f000000000000000, type: 0}
  m_StaticBatchInfo:
    firstSubMesh: 0
    subMeshCount: 0
  m_StaticBatchRoot: {fileID: 0}
  m_ProbeAnchor: {fileID: 0}
  m_LightProbeVolumeOverride: {fileID: 0}
  m_ScaleInLightmap: 1
  m_ReceiveGI: 1
  m_PreserveUVs: 0
  m_IgnoreNormalsForChartDetection: 0
  m_ImportantGI: 0
  m_StitchLightmapSeams: 1
  m_SelectedEditorRenderState: 0
  m_MinimumChartSize: 4
  m_AutoUVMaxDistance: 0.5
  m_AutoUVMaxAngle: 89
  m_LightmapParameters: {fileID: 0}
  m_SortingLayerID: 0
  m_SortingLayer: 0
  m_SortingOrder: 0
  m_ChunkSize: {x: 32, y: 32, z: 32}
  m_ChunkCullingBounds: {x: 0, y: 0, z: 0}
  m_MaxChunkCount: 16
  m_MaxFrameAge: 16
  m_SortOrder: 0
  m_Mode: 0
  m_DetectChunkCullingBounds: 0
  m_MaskInteraction: 0
--- !u!1 &3451760423063710216
GameObject:
  m_ObjectHideFlags: 0
  m_CorrespondingSourceObject: {fileID: 0}
  m_PrefabInstance: {fileID: 0}
  m_PrefabAsset: {fileID: 0}
  serializedVersion: 6
  m_Component:
  - component: {fileID: 3763935711714074704}
  - component: {fileID: 8755404319959474757}
  m_Layer: 31
  m_Name: Palette
  m_TagString: Untagged
  m_Icon: {fileID: 0}
  m_NavMeshLayer: 0
  m_StaticEditorFlags: 0
  m_IsActive: 1
--- !u!4 &3763935711714074704
Transform:
  m_ObjectHideFlags: 0
  m_CorrespondingSourceObject: {fileID: 0}
  m_PrefabInstance: {fileID: 0}
  m_PrefabAsset: {fileID: 0}
  m_GameObject: {fileID: 3451760423063710216}
  m_LocalRotation: {x: 0, y: 0, z: 0, w: 1}
  m_LocalPosition: {x: 0, y: 0, z: 0}
  m_LocalScale: {x: 1, y: 1, z: 1}
  m_Children:
  - {fileID: 8250203988346359824}
  m_Father: {fileID: 0}
  m_RootOrder: 0
  m_LocalEulerAnglesHint: {x: 0, y: 0, z: 0}
--- !u!156049354 &8755404319959474757
Grid:
  m_ObjectHideFlags: 0
  m_CorrespondingSourceObject: {fileID: 0}
  m_PrefabInstance: {fileID: 0}
  m_PrefabAsset: {fileID: 0}
  m_GameObject: {fileID: 3451760423063710216}
  m_Enabled: 1
  m_CellSize: {x: 1, y: 1, z: 0}
  m_CellGap: {x: 0, y: 0, z: 0}
  m_CellLayout: 0
  m_CellSwizzle: 0
--- !u!114 &7543445017073847677
MonoBehaviour:
  m_ObjectHideFlags: 0
  m_CorrespondingSourceObject: {fileID: 0}
  m_PrefabInstance: {fileID: 0}
  m_PrefabAsset: {fileID: 0}
  m_GameObject: {fileID: 0}
  m_Enabled: 1
  m_EditorHideFlags: 0
  m_Script: {fileID: 12395, guid: 0000000000000000e000000000000000, type: 0}
  m_Name: Palette Settings
  m_EditorClassIdentifier: 
  cellSizing: 0
  m_TransparencySortMode: 0
  m_TransparencySortAxis: {x: 0, y: 0, z: 1}
